Candidate 25

Candidate 11

Candidate 26

Candidate 1

Candidate 18
Candidate 6

Candidate 10

Candidate 3
Candidate 4
Candidate 27

Candidate 24

Candidate 5

Candidate 14
Candidate 15

Candidate 17

Candidate 14