Yuga Aoyama

Yami Sukehiro

Nero

Mezo Shoji

Finral Roulacase

Charmy Pappitson

Tsuyu Asui

Mashirao Ojiro

Rikido Sato

Nero

Mina Ashido

Finral Roulacase

Yuno

Eijiro Kirishima

Vannessa Enoteca

Eijiro Kirishima

Gordon Agrippa

Fumukage Tokoyami

Yuno
Luck Voltia
